Divorces in New Zealand • BayesRates
…
age: a factor with levels
"15-19","20-24",…,"60-64","65+";

sex: a character vector with values
"Female" and "Male";

time: an integer vector with values
1992,…,2021; and

nevent: a numeric vector with the number of
divorces.

nz_divorces
#> # A tibble: 660 × 4
#>    age   sex     time nevent
#>    <fct> <chr>  <int>  <dbl>
#>  1 15-19 Female  1992     12
#>  2 15-19 Female  1993      6
#>  3 15-19 Female  1994      9
#>  4 15-19 Female  1995      6
#>  5 15-19 Female  1996      3
#>  6 15-19 Female  1997      9
#>  7 15-19 Female  1998      3
#>  8 15-19 Female  1999      6
#>  9 15-19 Female  2000      9
#> 10 15-19 Female  2001      6
#> # ℹ 650 more rows
…
age: a factor with levels
"15-19","20-24",…,"60-64","65+";

sex: a character vector with values
"Female", "Male";

time: an integer vector with values being
1992,…,2021; and

py: a numeric vector with person-years of
exposure.

nz_population
#> # A tibble: 660 × 4
#>    age   sex     time     py
#>    <fct> <chr>  <int>  <dbl>
#>  1 15-19 Female  1992 139500
#>  2 15-19 Female  1993 135510
#>  3 15-19 Female  1994 133010
#>  4 15-19 Female  1995 131960
#>  5 15-19 Female  1996 132490
#>  6 15-19 Female  1997 132590
#>  7 15-19 Female  1998 133050
#>  8 15-19 Female  1999 133210
#>  9 15-19 Female  2000 134360
#> 10 15-19 Female  2001 136360
#> # ℹ 650 more rows
…
Function augment() returns the original data plus
model-based estimates of rates.

rates_age_df <- augment(res_age)
rates_age_df
#> # A tibble: 22 × 10
#>    age   sex    nevent     py age.mid   .fitted    .lower    .upper .probability
#>    <fct> <chr>   <dbl>  <dbl>   <dbl>     <dbl>     <dbl>     <dbl> <list>      
#>  1 15-19 Female      0 154480    17.5 0.0000201 0.0000106 0.0000388 <dbl>       
#>  2 15-19 Male        0 162910    17.5 0.0000201 0.0000106 0.0000388 <dbl>       
#>  3 20-24 Female    111 163370    22.5 0.000495  0.000434  0.000564  <dbl>       
#>  4 20-24 Male       54 175600    22.5 0.000495  0.000434  0.000564  <dbl>       
#>  5 25-29 Female    639 187000    27.5 0.00266   0.00253   0.00280   <dbl>       
#>  6 25-29 Male      429 195310    27.5 0.00266   0.00253   0.00280   <dbl>       
#>  7 30-34 Female   1026 187220    32.5 0.00523   0.00504   0.00542   <dbl>       
#>  8 30-34 Male      837 186170    32.5 0.00523   0.00504   0.00542   <dbl>       
#>  9 35-39 Female   1134 168560    37.5 0.00629   0.00610   0.00651   <dbl>       
#> 10 35-39 Male     1032 165880    37.5 0.00629   0.00610   0.00651   <dbl>       
#> # ℹ 12 more rows
#> # ℹ 1 more variable: .observed <dbl>
…
The rates returned by augment() now distinguish between
sexes

rates_age_bysex_df <- augment(res_age_bysex)
rates_age_bysex_df
#> # A tibble: 22 × 10
#>    age   sex    nevent     py age.mid   .fitted    .lower    .upper .probability
#>    <fct> <chr>   <dbl>  <dbl>   <dbl>     <dbl>     <dbl>     <dbl> <list>      
#>  1 15-19 Female      0 154480    17.5 0.0000364 0.0000189 0.0000682 <dbl>       
#>  2 15-19 Male        0 162910    17.5 0.0000220 0.0000111 0.0000413 <dbl>       
#>  3 20-24 Female    111 163370    22.5 0.000674  0.000568  0.000787  <dbl>       
#>  4 20-24 Male       54 175600    22.5 0.000326  0.000266  0.000409  <dbl>       
#>  5 25-29 Female    639 187000    27.5 0.00322   0.00301   0.00345   <dbl>       
#>  6 25-29 Male      429 195310    27.5 0.00204   0.00189   0.00221   <dbl>       
#>  7 30-34 Female   1026 187220    32.5 0.00578   0.00553   0.00607   <dbl>       
#>  8 30-34 Male      837 186170    32.5 0.00472   0.00449   0.00496   <dbl>       
#>  9 35-39 Female   1134 168560    37.5 0.00653   0.00622   0.00684   <dbl>       
#> 10 35-39 Male     1032 165880    37.5 0.00609   0.00578   0.00640   <dbl>       
#> # ℹ 12 more rows
#> # ℹ 1 more variable: .observed <dbl>
…
The model outputs now have a time dimension.

rates_agetime_fix <- augment(res_agetime_fix)
rates_agetime_fix
#> # A tibble: 660 × 11
#>    age   sex     time nevent     py age.mid .fitted  .lower  .upper .probability
#>    <fct> <chr>  <int>  <dbl>  <dbl>   <dbl>   <dbl>   <dbl>   <dbl> <list>      
#>  1 15-19 Female  1992     12 139500    17.5 3.56e-5 3.03e-5 4.21e-5 <dbl>       
#>  2 15-19 Female  1993      6 135510    17.5 3.53e-5 3.02e-5 4.15e-5 <dbl>       
#>  3 15-19 Female  1994      9 133010    17.5 3.47e-5 2.97e-5 4.08e-5 <dbl>       
#>  4 15-19 Female  1995      6 131960    17.5 3.52e-5 3.01e-5 4.13e-5 <dbl>       
#>  5 15-19 Female  1996      3 132490    17.5 3.59e-5 3.06e-5 4.20e-5 <dbl>       
#>  6 15-19 Female  1997      9 132590    17.5 3.43e-5 2.95e-5 4.04e-5 <dbl>       
#>  7 15-19 Female  1998      3 133050    17.5 3.50e-5 2.98e-5 4.11e-5 <dbl>       
#>  8 15-19 Female  1999      6 133210    17.5 3.41e-5 2.91e-5 4.00e-5 <dbl>       
#>  9 15-19 Female  2000      9 134360    17.5 3.31e-5 2.82e-5 3.88e-5 <dbl>       
#> 10 15-19 Female  2001      6 136360    17.5 3.28e-5 2.82e-5 3.88e-5 <dbl>       
#> # ℹ 650 more rows
#> # ℹ 1 more variable: .observed <dbl>
…
